{"success":true,"data":[{"id":71,"documentId":"fajjjgyk0dnku6hv9dka16r2","name":"Duration Tester","email":"test@example.com","phone":"090-0000-0000","date":"2026-02-01","time":"18:00","duration":120,"laneIndex":0,"guests":2,"status":"confirmed","course":null,"notes":null,"notesTranslation":null,"ownerNote":null,"ownerReply":null,"language":null,"assignedTables":[{"id":50,"documentId":"oi7xo5nyo145owys9yhyifpd","name":"テーブル2"}],"customer":null,"customerStats":{"visitCount":1,"lastVisit":"2026-02-01","cancelCount":0,"noShowCount":0,"notesHistory":[],"isFirstTime":false,"totalReservations":1},"createdAt":"2026-01-22T07:40:05.352Z","updatedAt":"2026-01-22T07:40:05.352Z"},{"id":84,"documentId":"onx5qlt5mfx601offlaeawzd","name":"Jone Smith","email":"wpgoul2016@gmail.com","phone":"08000000001","date":"2026-01-30","time":"12:00:00.000","duration":120,"laneIndex":0,"guests":2,"status":"confirmed","course":"飲み放題１","notes":"I'm allergic to chicken","notesTranslation":null,"ownerNote":"アレルギーの件、承知いたしました。対応させていただきます。","ownerReply":null,"language":null,"assignedTables":[{"id":50,"documentId":"oi7xo5nyo145owys9yhyifpd","name":"テーブル2"}],"customer":{"id":4,"documentId":"b97x5nw05btbt856to1e8chz","name":"Jone Smith","totalVisits":0},"customerStats":{"visitCount":1,"lastVisit":"2026-01-30","cancelCount":0,"noShowCount":0,"notesHistory":["I'm allergic to chicken"],"isFirstTime":false,"totalReservations":1},"createdAt":"2026-01-24T07:59:37.607Z","updatedAt":"2026-01-25T08:43:53.951Z"},{"id":85,"documentId":"ghpe81hffne1guh5m83cpmay","name":"dem lender 2026-01-30 12:00_3","email":"wpgoul@gmail.com","phone":"08000000002","date":"2026-01-30","time":"12:00:00.000","duration":50,"laneIndex":0,"guests":3,"status":"confirmed","course":null,"notes":"","notesTranslation":null,"ownerNote":null,"ownerReply":null,"language":null,"assignedTables":[{"id":51,"documentId":"e6iivvv26aiaarm5a5hvr9fp","name":"カウンター1"}],"customer":{"id":5,"documentId":"bbtckeaha9j5pmql9o3d2hx9","name":"dem lender 2026-01-30 12:00_3","totalVisits":0},"customerStats":{"visitCount":1,"lastVisit":"2026-01-30","cancelCount":0,"noShowCount":0,"notesHistory":[],"isFirstTime":false,"totalReservations":1},"createdAt":"2026-01-24T08:31:49.494Z","updatedAt":"2026-01-24T09:38:05.645Z"},{"id":86,"documentId":"ulabjpeeq0vbznpfgij3a4yb","name":"王立明 2026-01-30 12:00_1","email":"wpgoul2016@gmail.com","phone":"07000000001","date":"2026-01-30","time":"12:00:00.000","duration":50,"laneIndex":1,"guests":1,"status":"pending","course":null,"notes":"素食者","notesTranslation":null,"ownerNote":null,"ownerReply":null,"language":null,"assignedTables":[{"id":51,"documentId":"e6iivvv26aiaarm5a5hvr9fp","name":"カウンター1"}],"customer":{"id":6,"documentId":"yztvl7t0p76b7c140i4kxjn7","name":"王立明 2026-01-30 12:00_1","totalVisits":0},"customerStats":{"visitCount":0,"lastVisit":null,"cancelCount":0,"noShowCount":0,"notesHistory":["素食者"],"isFirstTime":true,"totalReservations":1},"createdAt":"2026-01-24T09:38:04.414Z","updatedAt":"2026-01-24T09:38:05.645Z"},{"id":87,"documentId":"bv2jnsjxn0w651qegcnrcpo8","name":"李芳","email":"wpgoul2016@gmail.com","phone":"07000000002","date":"2026-01-30","time":"12:00:00.000","duration":50,"laneIndex":2,"guests":1,"status":"confirmed","course":null,"notes":"","notesTranslation":null,"ownerNote":null,"ownerReply":null,"language":"zh-CN","assignedTables":[{"id":51,"documentId":"e6iivvv26aiaarm5a5hvr9fp","name":"カウンター1"}],"customer":{"id":7,"documentId":"rq52m1mvkiprm9s9pltzqb4v","name":"李芳","totalVisits":0},"customerStats":{"visitCount":1,"lastVisit":"2026-01-30","cancelCount":0,"noShowCount":0,"notesHistory":[],"isFirstTime":false,"totalReservations":1},"createdAt":"2026-01-24T10:10:43.059Z","updatedAt":"2026-01-24T10:10:43.073Z"}],"meta":{"page":1,"pageSize":5,"total":29,"pageCount":6}}